module git.sr.ht/~kota/adelaii.de

go 1.18

require (
	github.com/stretchr/testify v1.8.0
	github.com/yuin/goldmark v1.4.13
)

require (
	github.com/davecgh/go-spew v1.1.1 // indirect
	github.com/pmezard/go-difflib v1.0.0 // indirect
	gopkg.in/yaml.v3 v3.0.1 // indirect
)
